{
  "project_info": {
    "project_number": "276462028502",
    "project_id": "salamapp-174006"
  },
  "client": [
    {
      "client_info": {
        "mobilesdk_app_id": "1:276462028502:android:1cd634f0ed290ce4",
        "android_client_info": {
          "package_name": "com.yoga.mbi.salamapp"
        }
      },
      "oauth_client": [
        {
          "client_id": "276462028502-e24mobn883mdp0ig6dkaljao9pu8lkfj.apps.googleusercontent.com",
          "client_type": 1,
          "android_info": {
            "package_name": "com.yoga.mbi.salamapp",
            "certificate_hash": "4c664e1d87dfca6843bbcd8acb8bdbef50b4f556"
          }
        },
        {
          "client_id": "276462028502-5ppt6q47km3316ih9uqkljo59jgkmjdb.apps.googleusercontent.com",
          "client_type": 3
        }
      ],
      "api_key": [
        {
          "current_key": "AIzaSyBLbi0IhICPOtlOZfjtoXqKDeHdDqlvgqA"
        }
      ],
      "services": {
        "analytics_service": {
          "status": 1
        },
        "appinvite_service": {
          "status": 1,
          "other_platform_oauth_client": []
        },
        "ads_service": {
          "status": 1
        }
      }
    }
  ],
  "configuration_version": "1"
}